…
This RMarkdown report shows the complete code to compute hourly quality
control for temperature indices. The first step is to download the data
from HOBO 10347392 and cut the series to the correct interval. Next, a
helper function is created to get the date, hour, and minute time stamp.

    ## Parsed with column specification:
    ## cols(
    ##   id = col_double(),
    ##   date = col_date(format = ""),
    ##   hm = col_time(format = ""),
    ##   ta = col_double(),
    ##   lux = col_double()
    ## )

    ## # A tibble: 4,032 x 6
    ##       id date       hm        ta   lux dthm               
    ##    <dbl> <date>     <drtn> <dbl> <dbl> <dttm>             
    ##  1     1 2018-12-10 00:00   7.08     0 2018-12-10 00:00:00
    ##  2     2 2018-12-10 00:10   7.08     0 2018-12-10 00:10:00
    ##  3     3 2018-12-10 00:20   6.98     0 2018-12-10 00:20:00
    ##  4     4 2018-12-10 00:30   7.08     0 2018-12-10 00:30:00
    ##  5     5 2018-12-10 00:40   6.98     0 2018-12-10 00:40:00
    ##  6     6 2018-12-10 00:50   6.98     0 2018-12-10 00:50:00
    ##  7     7 2018-12-10 01:00   7.08     0 2018-12-10 01:00:00
    ##  8     8 2018-12-10 01:10   7.08     0 2018-12-10 01:10:00
    ##  9     9 2018-12-10 01:20   7.18     0 2018-12-10 01:20:00
    ## 10    10 2018-12-10 01:30   7.08     0 2018-12-10 01:30:00
    ## # ... with 4,022 more rows
…
## 2\. Flagging system to identify bad data

After creating all quality control check functions, the functions will
be used to identify bad data points from the dataset. A new columns for
the flags will be created

    ## # A tibble: 4,032 x 12
    ##       id date       hm       ta   lux dthm                range_flag
    ##    <dbl> <date>     <drt> <dbl> <dbl> <dttm>              <lgl>     
    ##  1     1 2018-12-10 00:00  7.08     0 2018-12-10 00:00:00 FALSE     
    ##  2     2 2018-12-10 00:10  7.08     0 2018-12-10 00:10:00 FALSE     
    ##  3     3 2018-12-10 00:20  6.98     0 2018-12-10 00:20:00 FALSE     
    ##  4     4 2018-12-10 00:30  7.08     0 2018-12-10 00:30:00 FALSE     
    ##  5     5 2018-12-10 00:40  6.98     0 2018-12-10 00:40:00 FALSE     
    ##  6     6 2018-12-10 00:50  6.98     0 2018-12-10 00:50:00 FALSE     
    ##  7     7 2018-12-10 01:00  7.08     0 2018-12-10 01:00:00 FALSE     
    ##  8     8 2018-12-10 01:10  7.08     0 2018-12-10 01:10:00 FALSE     
    ##  9     9 2018-12-10 01:20  7.18     0 2018-12-10 01:20:00 FALSE     
    ## 10    10 2018-12-10 01:30  7.08     0 2018-12-10 01:30:00 FALSE     
    ## # ... with 4,022 more rows, and 5 more variables: rate_change_flag <lgl>,
    ## #   ta_min_var_flag <lgl>, ta_max_var_flag <lgl>,
    ## #   light_intensity_flag <lgl>, flag_count <dbl>
…
## 3 Filling gaps with a regression model

As a last step to complete the hourly values, the flagged values are
replaced with a linear model trained on reference weather stations. For
this, the nearest nearest reference station (according to the HOBO
location) was downloaded from
<https://www.dwd.de/DE/klimaumwelt/cdc/cdc_node.html(FREIBURG> (DWD)
with DWD-ID \#1443 and FREIBURG-MITTE (DWD) with DWD-ID
    \#13667

    ## `summarise()` regrouping output by 'date' (override with `.groups` argument)

    ## # A tibble: 672 x 6
    ## # Groups:   date [28]
    ##    date        hour hm            th   lux flag_count
    ##    <date>     <int> <drtn>     <dbl> <dbl>      <dbl>
    ##  1 2018-12-10     0     0 secs  7.03    0           0
    ##  2 2018-12-10     1  3600 secs  7.05    0           0
    ##  3 2018-12-10     2  7200 secs  6.83    0           0
    ##  4 2018-12-10     3 10800 secs  7.01    0           0
    ##  5 2018-12-10     4 14400 secs  7.28    0           0
    ##  6 2018-12-10     5 18000 secs  6.49    0           0
    ##  7 2018-12-10     6 21600 secs  5.89    0           0
    ##  8 2018-12-10     7 25200 secs  5.72    0           0
    ##  9 2018-12-10     8 28800 secs  5.94  282.          0
    ## 10 2018-12-10     9 32400 secs  6.35 1634.          0
    ## # ... with 662 more rows

    ## Parsed with column specification:
    ## cols(
    ##   date = col_date(format = ""),
    ##   hm = col_time(format = ""),
    ##   ta = col_double()
    ## )
    ## Parsed with column specification:
    ## cols(
    ##   date = col_date(format = ""),
    ##   hm = col_time(format = ""),
    ##   ta = col_double()
    ## )

    ## # A tibble: 672 x 14
    ##       id date       hm       ta   lux dthm                range_flag
    ##    <dbl> <date>     <drt> <dbl> <dbl> <dttm>              <lgl>     
    ##  1     1 2018-12-10 00:00  7.08   0   2018-12-10 00:00:00 FALSE     
    ##  2     7 2018-12-10 01:00  7.08   0   2018-12-10 01:00:00 FALSE     
    ##  3    13 2018-12-10 02:00  6.67   0   2018-12-10 02:00:00 FALSE     
    ##  4    19 2018-12-10 03:00  6.98   0   2018-12-10 03:00:00 FALSE     
    ##  5    25 2018-12-10 04:00  7.28   0   2018-12-10 04:00:00 FALSE     
    ##  6    31 2018-12-10 05:00  7.08   0   2018-12-10 05:00:00 FALSE     
    ##  7    37 2018-12-10 06:00  5.86   0   2018-12-10 06:00:00 FALSE     
    ##  8    43 2018-12-10 07:00  5.86   0   2018-12-10 07:00:00 FALSE     
    ##  9    49 2018-12-10 08:00  5.86  43.1 2018-12-10 08:00:00 FALSE     
    ## 10    55 2018-12-10 09:00  6.27 915.  2018-12-10 09:00:00 FALSE     
    ## # ... with 662 more rows, and 7 more variables: rate_change_flag <lgl>,
    ## #   ta_min_var_flag <lgl>, ta_max_var_flag <lgl>,
    ## #   light_intensity_flag <lgl>, flag_count <dbl>, ta_wbi <dbl>,
    ## #   ta_ws <dbl>
…
